([('main',
   '/mnt/c/Users/vincent.lambert/Documents/Travail/ConversionTools/cmake_converter-METRO/cmake_converter/build/main/main',
   'EXECUTABLE'),
  ('libexpat.so.1', '/lib/x86_64-linux-gnu/libexpat.so.1', 'BINARY'),
  ('libz.so.1', '/lib/x86_64-linux-gnu/libz.so.1', 'BINARY'),
  ('lib-dynload/_posixshmem',
   '/usr/lib/python3.8/lib-dynload/_posixshmem.cpython-38-x86_64-linux-gnu.so',
   'EXTENSION'),
  ('lib-dynload/_multiprocessing',
   '/usr/lib/python3.8/lib-dynload/_multiprocessing.cpython-38-x86_64-linux-gnu.so',
   'EXTENSION'),
  ('lib-dynload/termios',
   '/usr/lib/python3.8/lib-dynload/termios.cpython-38-x86_64-linux-gnu.so',
   'EXTENSION'),
  ('lib-dynload/_ssl',
   '/usr/lib/python3.8/lib-dynload/_ssl.cpython-38-x86_64-linux-gnu.so',
   'EXTENSION'),
  ('lib-dynload/_hashlib',
   '/usr/lib/python3.8/lib-dynload/_hashlib.cpython-38-x86_64-linux-gnu.so',
   'EXTENSION'),
  ('lib-dynload/_contextvars',
   '/usr/lib/python3.8/lib-dynload/_contextvars.cpython-38-x86_64-linux-gnu.so',
   'EXTENSION'),
  ('lib-dynload/_decimal',
   '/usr/lib/python3.8/lib-dynload/_decimal.cpython-38-x86_64-linux-gnu.so',
   'EXTENSION'),
  ('lib-dynload/resource',
   '/usr/lib/python3.8/lib-dynload/resource.cpython-38-x86_64-linux-gnu.so',
   'EXTENSION'),
  ('lib-dynload/_lzma',
   '/usr/lib/python3.8/lib-dynload/_lzma.cpython-38-x86_64-linux-gnu.so',
   'EXTENSION'),
  ('lib-dynload/_bz2',
   '/usr/lib/python3.8/lib-dynload/_bz2.cpython-38-x86_64-linux-gnu.so',
   'EXTENSION'),
  ('lib-dynload/_asyncio',
   '/usr/lib/python3.8/lib-dynload/_asyncio.cpython-38-x86_64-linux-gnu.so',
   'EXTENSION'),
  ('lib-dynload/_queue',
   '/usr/lib/python3.8/lib-dynload/_queue.cpython-38-x86_64-linux-gnu.so',
   'EXTENSION'),
  ('lib-dynload/mmap',
   '/usr/lib/python3.8/lib-dynload/mmap.cpython-38-x86_64-linux-gnu.so',
   'EXTENSION'),
  ('lib-dynload/readline',
   '/usr/lib/python3.8/lib-dynload/readline.cpython-38-x86_64-linux-gnu.so',
   'EXTENSION'),
  ('lib-dynload/_opcode',
   '/usr/lib/python3.8/lib-dynload/_opcode.cpython-38-x86_64-linux-gnu.so',
   'EXTENSION'),
  ('lib-dynload/_ctypes',
   '/usr/lib/python3.8/lib-dynload/_ctypes.cpython-38-x86_64-linux-gnu.so',
   'EXTENSION'),
  ('lib-dynload/_multibytecodec',
   '/usr/lib/python3.8/lib-dynload/_multibytecodec.cpython-38-x86_64-linux-gnu.so',
   'EXTENSION'),
  ('lib-dynload/_codecs_jp',
   '/usr/lib/python3.8/lib-dynload/_codecs_jp.cpython-38-x86_64-linux-gnu.so',
   'EXTENSION'),
  ('lib-dynload/_codecs_iso2022',
   '/usr/lib/python3.8/lib-dynload/_codecs_iso2022.cpython-38-x86_64-linux-gnu.so',
   'EXTENSION'),
  ('lib-dynload/_codecs_kr',
   '/usr/lib/python3.8/lib-dynload/_codecs_kr.cpython-38-x86_64-linux-gnu.so',
   'EXTENSION'),
  ('lib-dynload/_codecs_cn',
   '/usr/lib/python3.8/lib-dynload/_codecs_cn.cpython-38-x86_64-linux-gnu.so',
   'EXTENSION'),
  ('lib-dynload/_codecs_hk',
   '/usr/lib/python3.8/lib-dynload/_codecs_hk.cpython-38-x86_64-linux-gnu.so',
   'EXTENSION'),
  ('lib-dynload/_codecs_tw',
   '/usr/lib/python3.8/lib-dynload/_codecs_tw.cpython-38-x86_64-linux-gnu.so',
   'EXTENSION'),
  ('lxml.etree',
   '/home/lambevin/.local/lib/python3.8/site-packages/lxml/etree.cpython-38-x86_64-linux-gnu.so',
   'EXTENSION'),
  ('lxml._elementpath',
   '/home/lambevin/.local/lib/python3.8/site-packages/lxml/_elementpath.cpython-38-x86_64-linux-gnu.so',
   'EXTENSION'),
  ('lxml.html.diff',
   '/home/lambevin/.local/lib/python3.8/site-packages/lxml/html/diff.cpython-38-x86_64-linux-gnu.so',
   'EXTENSION'),
  ('lxml.html.clean',
   '/home/lambevin/.local/lib/python3.8/site-packages/lxml/html/clean.cpython-38-x86_64-linux-gnu.so',
   'EXTENSION'),
  ('lxml.builder',
   '/home/lambevin/.local/lib/python3.8/site-packages/lxml/builder.cpython-38-x86_64-linux-gnu.so',
   'EXTENSION'),
  ('lxml.sax',
   '/home/lambevin/.local/lib/python3.8/site-packages/lxml/sax.cpython-38-x86_64-linux-gnu.so',
   'EXTENSION'),
  ('lxml.objectify',
   '/home/lambevin/.local/lib/python3.8/site-packages/lxml/objectify.cpython-38-x86_64-linux-gnu.so',
   'EXTENSION'),
  ('libssl.so.1.1', '/lib/x86_64-linux-gnu/libssl.so.1.1', 'BINARY'),
  ('libcrypto.so.1.1', '/lib/x86_64-linux-gnu/libcrypto.so.1.1', 'BINARY'),
  ('libmpdec.so.2', '/lib/x86_64-linux-gnu/libmpdec.so.2', 'BINARY'),
  ('liblzma.so.5', '/lib/x86_64-linux-gnu/liblzma.so.5', 'BINARY'),
  ('libbz2.so.1.0', '/lib/x86_64-linux-gnu/libbz2.so.1.0', 'BINARY'),
  ('libtinfo.so.6', '/lib/x86_64-linux-gnu/libtinfo.so.6', 'BINARY'),
  ('libreadline.so.8', '/lib/x86_64-linux-gnu/libreadline.so.8', 'BINARY'),
  ('libffi.so.7', '/lib/x86_64-linux-gnu/libffi.so.7', 'BINARY'),
  ('libpython3.8.so.1.0',
   '/lib/x86_64-linux-gnu/libpython3.8.so.1.0',
   'BINARY'),
  ('base_library.zip',
   '/mnt/c/Users/vincent.lambert/Documents/Travail/ConversionTools/cmake_converter-METRO/cmake_converter/build/main/base_library.zip',
   'DATA'),
  ('lxml/isoschematron/resources/rng/iso-schematron.rng',
   '/home/lambevin/.local/lib/python3.8/site-packages/lxml/isoschematron/resources/rng/iso-schematron.rng',
   'DATA'),
  ('lxml/isoschematron/resources/xsl/XSD2Schtrn.xsl',
   '/home/lambevin/.local/lib/python3.8/site-packages/lxml/isoschematron/resources/xsl/XSD2Schtrn.xsl',
   'DATA'),
  ('lxml/isoschematron/resources/xsl/iso-schematron-xslt1/iso_abstract_expand.xsl',
   '/home/lambevin/.local/lib/python3.8/site-packages/lxml/isoschematron/resources/xsl/iso-schematron-xslt1/iso_abstract_expand.xsl',
   'DATA'),
  ('lxml/isoschematron/resources/xsl/iso-schematron-xslt1/iso_schematron_message.xsl',
   '/home/lambevin/.local/lib/python3.8/site-packages/lxml/isoschematron/resources/xsl/iso-schematron-xslt1/iso_schematron_message.xsl',
   'DATA'),
  ('lxml/isoschematron/resources/xsl/iso-schematron-xslt1/iso_dsdl_include.xsl',
   '/home/lambevin/.local/lib/python3.8/site-packages/lxml/isoschematron/resources/xsl/iso-schematron-xslt1/iso_dsdl_include.xsl',
   'DATA'),
  ('lxml/isoschematron/resources/xsl/iso-schematron-xslt1/readme.txt',
   '/home/lambevin/.local/lib/python3.8/site-packages/lxml/isoschematron/resources/xsl/iso-schematron-xslt1/readme.txt',
   'DATA'),
  ('lxml/isoschematron/resources/xsl/RNG2Schtrn.xsl',
   '/home/lambevin/.local/lib/python3.8/site-packages/lxml/isoschematron/resources/xsl/RNG2Schtrn.xsl',
   'DATA'),
  ('lxml/isoschematron/resources/xsl/iso-schematron-xslt1/iso_schematron_skeleton_for_xslt1.xsl',
   '/home/lambevin/.local/lib/python3.8/site-packages/lxml/isoschematron/resources/xsl/iso-schematron-xslt1/iso_schematron_skeleton_for_xslt1.xsl',
   'DATA'),
  ('lxml/isoschematron/resources/xsl/iso-schematron-xslt1/iso_svrl_for_xslt1.xsl',
   '/home/lambevin/.local/lib/python3.8/site-packages/lxml/isoschematron/resources/xsl/iso-schematron-xslt1/iso_svrl_for_xslt1.xsl',
   'DATA')],)
