('/mnt/c/Users/vincent.lambert/Documents/Travail/ConversionTools/cmake_converter-METRO/cmake_converter/build/main/PYZ-00.pyz',
 [('multiprocessing.popen_spawn_posix',
   '/usr/lib/python3.8/multiprocessing/popen_spawn_posix.py',
   'PYMODULE'),
  ('multiprocessing.resource_tracker',
   '/usr/lib/python3.8/multiprocessing/resource_tracker.py',
   'PYMODULE'),
  ('threading', '/usr/lib/python3.8/threading.py', 'PYMODULE'),
  ('_threading_local', '/usr/lib/python3.8/_threading_local.py', 'PYMODULE'),
  ('contextlib', '/usr/lib/python3.8/contextlib.py', 'PYMODULE'),
  ('_strptime', '/usr/lib/python3.8/_strptime.py', 'PYMODULE'),
  ('datetime', '/usr/lib/python3.8/datetime.py', 'PYMODULE'),
  ('calendar', '/usr/lib/python3.8/calendar.py', 'PYMODULE'),
  ('signal', '/usr/lib/python3.8/signal.py', 'PYMODULE'),
  ('multiprocessing.util',
   '/usr/lib/python3.8/multiprocessing/util.py',
   'PYMODULE'),
  ('multiprocessing.forkserver',
   '/usr/lib/python3.8/multiprocessing/forkserver.py',
   'PYMODULE'),
  ('multiprocessing.connection',
   '/usr/lib/python3.8/multiprocessing/connection.py',
   'PYMODULE'),
  ('multiprocessing.resource_sharer',
   '/usr/lib/python3.8/multiprocessing/resource_sharer.py',
   'PYMODULE'),
  ('xmlrpc.client', '/usr/lib/python3.8/xmlrpc/client.py', 'PYMODULE'),
  ('xmlrpc', '/usr/lib/python3.8/xmlrpc/__init__.py', 'PYMODULE'),
  ('gzip', '/usr/lib/python3.8/gzip.py', 'PYMODULE'),
  ('_compression', '/usr/lib/python3.8/_compression.py', 'PYMODULE'),
  ('xml.parsers.expat', '/usr/lib/python3.8/xml/parsers/expat.py', 'PYMODULE'),
  ('xml.parsers', '/usr/lib/python3.8/xml/parsers/__init__.py', 'PYMODULE'),
  ('xml', '/usr/lib/python3.8/xml/__init__.py', 'PYMODULE'),
  ('xml.sax.expatreader',
   '/usr/lib/python3.8/xml/sax/expatreader.py',
   'PYMODULE'),
  ('xml.sax.saxutils', '/usr/lib/python3.8/xml/sax/saxutils.py', 'PYMODULE'),
  ('urllib.request', '/usr/lib/python3.8/urllib/request.py', 'PYMODULE'),
  ('fnmatch', '/usr/lib/python3.8/fnmatch.py', 'PYMODULE'),
  ('getpass', '/usr/lib/python3.8/getpass.py', 'PYMODULE'),
  ('nturl2path', '/usr/lib/python3.8/nturl2path.py', 'PYMODULE'),
  ('ftplib', '/usr/lib/python3.8/ftplib.py', 'PYMODULE'),
  ('netrc', '/usr/lib/python3.8/netrc.py', 'PYMODULE'),
  ('stat', '/usr/lib/python3.8/stat.py', 'PYMODULE'),
  ('shlex', '/usr/lib/python3.8/shlex.py', 'PYMODULE'),
  ('mimetypes', '/usr/lib/python3.8/mimetypes.py', 'PYMODULE'),
  ('getopt', '/usr/lib/python3.8/getopt.py', 'PYMODULE'),
  ('gettext', '/usr/lib/python3.8/gettext.py', 'PYMODULE'),
  ('copy', '/usr/lib/python3.8/copy.py', 'PYMODULE'),
  ('email.utils', '/usr/lib/python3.8/email/utils.py', 'PYMODULE'),
  ('email.charset', '/usr/lib/python3.8/email/charset.py', 'PYMODULE'),
  ('email.encoders', '/usr/lib/python3.8/email/encoders.py', 'PYMODULE'),
  ('quopri', '/usr/lib/python3.8/quopri.py', 'PYMODULE'),
  ('email.errors', '/usr/lib/python3.8/email/errors.py', 'PYMODULE'),
  ('email.quoprimime', '/usr/lib/python3.8/email/quoprimime.py', 'PYMODULE'),
  ('email.base64mime', '/usr/lib/python3.8/email/base64mime.py', 'PYMODULE'),
  ('email._parseaddr', '/usr/lib/python3.8/email/_parseaddr.py', 'PYMODULE'),
  ('random', '/usr/lib/python3.8/random.py', 'PYMODULE'),
  ('http.cookiejar', '/usr/lib/python3.8/http/cookiejar.py', 'PYMODULE'),
  ('http', '/usr/lib/python3.8/http/__init__.py', 'PYMODULE'),
  ('urllib', '/usr/lib/python3.8/urllib/__init__.py', 'PYMODULE'),
  ('ssl', '/usr/lib/python3.8/ssl.py', 'PYMODULE'),
  ('urllib.response', '/usr/lib/python3.8/urllib/response.py', 'PYMODULE'),
  ('urllib.error', '/usr/lib/python3.8/urllib/error.py', 'PYMODULE'),
  ('string', '/usr/lib/python3.8/string.py', 'PYMODULE'),
  ('posixpath', '/usr/lib/python3.8/posixpath.py', 'PYMODULE'),
  ('genericpath', '/usr/lib/python3.8/genericpath.py', 'PYMODULE'),
  ('hashlib', '/usr/lib/python3.8/hashlib.py', 'PYMODULE'),
  ('email', '/usr/lib/python3.8/email/__init__.py', 'PYMODULE'),
  ('email.parser', '/usr/lib/python3.8/email/parser.py', 'PYMODULE'),
  ('email._policybase', '/usr/lib/python3.8/email/_policybase.py', 'PYMODULE'),
  ('email.feedparser', '/usr/lib/python3.8/email/feedparser.py', 'PYMODULE'),
  ('email.message', '/usr/lib/python3.8/email/message.py', 'PYMODULE'),
  ('email.policy', '/usr/lib/python3.8/email/policy.py', 'PYMODULE'),
  ('email.contentmanager',
   '/usr/lib/python3.8/email/contentmanager.py',
   'PYMODULE'),
  ('email.headerregistry',
   '/usr/lib/python3.8/email/headerregistry.py',
   'PYMODULE'),
  ('email.iterators', '/usr/lib/python3.8/email/iterators.py', 'PYMODULE'),
  ('email.generator', '/usr/lib/python3.8/email/generator.py', 'PYMODULE'),
  ('email._encoded_words',
   '/usr/lib/python3.8/email/_encoded_words.py',
   'PYMODULE'),
  ('uu', '/usr/lib/python3.8/uu.py', 'PYMODULE'),
  ('optparse', '/usr/lib/python3.8/optparse.py', 'PYMODULE'),
  ('textwrap', '/usr/lib/python3.8/textwrap.py', 'PYMODULE'),
  ('email._header_value_parser',
   '/usr/lib/python3.8/email/_header_value_parser.py',
   'PYMODULE'),
  ('email.header', '/usr/lib/python3.8/email/header.py', 'PYMODULE'),
  ('bisect', '/usr/lib/python3.8/bisect.py', 'PYMODULE'),
  ('xml.sax', '/usr/lib/python3.8/xml/sax/__init__.py', 'PYMODULE'),
  ('xml.sax.handler', '/usr/lib/python3.8/xml/sax/handler.py', 'PYMODULE'),
  ('xml.sax._exceptions',
   '/usr/lib/python3.8/xml/sax/_exceptions.py',
   'PYMODULE'),
  ('xml.sax.xmlreader', '/usr/lib/python3.8/xml/sax/xmlreader.py', 'PYMODULE'),
  ('urllib.parse', '/usr/lib/python3.8/urllib/parse.py', 'PYMODULE'),
  ('http.client', '/usr/lib/python3.8/http/client.py', 'PYMODULE'),
  ('decimal', '/usr/lib/python3.8/decimal.py', 'PYMODULE'),
  ('_pydecimal', '/usr/lib/python3.8/_pydecimal.py', 'PYMODULE'),
  ('contextvars', '/usr/lib/python3.8/contextvars.py', 'PYMODULE'),
  ('numbers', '/usr/lib/python3.8/numbers.py', 'PYMODULE'),
  ('base64', '/usr/lib/python3.8/base64.py', 'PYMODULE'),
  ('hmac', '/usr/lib/python3.8/hmac.py', 'PYMODULE'),
  ('struct', '/usr/lib/python3.8/struct.py', 'PYMODULE'),
  ('socket', '/usr/lib/python3.8/socket.py', 'PYMODULE'),
  ('selectors', '/usr/lib/python3.8/selectors.py', 'PYMODULE'),
  ('tempfile', '/usr/lib/python3.8/tempfile.py', 'PYMODULE'),
  ('shutil', '/usr/lib/python3.8/shutil.py', 'PYMODULE'),
  ('zipfile', '/usr/lib/python3.8/zipfile.py', 'PYMODULE'),
  ('py_compile', '/usr/lib/python3.8/py_compile.py', 'PYMODULE'),
  ('importlib.machinery',
   '/usr/lib/python3.8/importlib/machinery.py',
   'PYMODULE'),
  ('importlib', '/usr/lib/python3.8/importlib/__init__.py', 'PYMODULE'),
  ('importlib.abc', '/usr/lib/python3.8/importlib/abc.py', 'PYMODULE'),
  ('importlib._bootstrap',
   '/usr/lib/python3.8/importlib/_bootstrap.py',
   'PYMODULE'),
  ('importlib._bootstrap_external',
   '/usr/lib/python3.8/importlib/_bootstrap_external.py',
   'PYMODULE'),
  ('importlib.metadata',
   '/usr/lib/python3.8/importlib/metadata.py',
   'PYMODULE'),
  ('configparser', '/usr/lib/python3.8/configparser.py', 'PYMODULE'),
  ('pathlib', '/usr/lib/python3.8/pathlib.py', 'PYMODULE'),
  ('ntpath', '/usr/lib/python3.8/ntpath.py', 'PYMODULE'),
  ('csv', '/usr/lib/python3.8/csv.py', 'PYMODULE'),
  ('tokenize', '/usr/lib/python3.8/tokenize.py', 'PYMODULE'),
  ('token', '/usr/lib/python3.8/token.py', 'PYMODULE'),
  ('importlib.util', '/usr/lib/python3.8/importlib/util.py', 'PYMODULE'),
  ('tarfile', '/usr/lib/python3.8/tarfile.py', 'PYMODULE'),
  ('lzma', '/usr/lib/python3.8/lzma.py', 'PYMODULE'),
  ('bz2', '/usr/lib/python3.8/bz2.py', 'PYMODULE'),
  ('logging', '/usr/lib/python3.8/logging/__init__.py', 'PYMODULE'),
  ('pickle', '/usr/lib/python3.8/pickle.py', 'PYMODULE'),
  ('pprint', '/usr/lib/python3.8/pprint.py', 'PYMODULE'),
  ('doctest', '/usr/lib/python3.8/doctest.py', 'PYMODULE'),
  ('unittest', '/usr/lib/python3.8/unittest/__init__.py', 'PYMODULE'),
  ('unittest.signals', '/usr/lib/python3.8/unittest/signals.py', 'PYMODULE'),
  ('unittest.main', '/usr/lib/python3.8/unittest/main.py', 'PYMODULE'),
  ('unittest.runner', '/usr/lib/python3.8/unittest/runner.py', 'PYMODULE'),
  ('unittest.loader', '/usr/lib/python3.8/unittest/loader.py', 'PYMODULE'),
  ('unittest.suite', '/usr/lib/python3.8/unittest/suite.py', 'PYMODULE'),
  ('unittest.case', '/usr/lib/python3.8/unittest/case.py', 'PYMODULE'),
  ('unittest.async_case',
   '/usr/lib/python3.8/unittest/async_case.py',
   'PYMODULE'),
  ('asyncio', '/usr/lib/python3.8/asyncio/__init__.py', 'PYMODULE'),
  ('asyncio.unix_events',
   '/usr/lib/python3.8/asyncio/unix_events.py',
   'PYMODULE'),
  ('asyncio.log', '/usr/lib/python3.8/asyncio/log.py', 'PYMODULE'),
  ('asyncio.windows_events',
   '/usr/lib/python3.8/asyncio/windows_events.py',
   'PYMODULE'),
  ('asyncio.windows_utils',
   '/usr/lib/python3.8/asyncio/windows_utils.py',
   'PYMODULE'),
  ('asyncio.selector_events',
   '/usr/lib/python3.8/asyncio/selector_events.py',
   'PYMODULE'),
  ('asyncio.proactor_events',
   '/usr/lib/python3.8/asyncio/proactor_events.py',
   'PYMODULE'),
  ('asyncio.base_subprocess',
   '/usr/lib/python3.8/asyncio/base_subprocess.py',
   'PYMODULE'),
  ('asyncio.subprocess',
   '/usr/lib/python3.8/asyncio/subprocess.py',
   'PYMODULE'),
  ('asyncio.streams', '/usr/lib/python3.8/asyncio/streams.py', 'PYMODULE'),
  ('asyncio.queues', '/usr/lib/python3.8/asyncio/queues.py', 'PYMODULE'),
  ('asyncio.runners', '/usr/lib/python3.8/asyncio/runners.py', 'PYMODULE'),
  ('asyncio.events', '/usr/lib/python3.8/asyncio/events.py', 'PYMODULE'),
  ('asyncio.trsock', '/usr/lib/python3.8/asyncio/trsock.py', 'PYMODULE'),
  ('asyncio.staggered', '/usr/lib/python3.8/asyncio/staggered.py', 'PYMODULE'),
  ('typing', '/usr/lib/python3.8/typing.py', 'PYMODULE'),
  ('asyncio.tasks', '/usr/lib/python3.8/asyncio/tasks.py', 'PYMODULE'),
  ('concurrent.futures',
   '/usr/lib/python3.8/concurrent/futures/__init__.py',
   'PYMODULE'),
  ('concurrent.futures.thread',
   '/usr/lib/python3.8/concurrent/futures/thread.py',
   'PYMODULE'),
  ('queue', '/usr/lib/python3.8/queue.py', 'PYMODULE'),
  ('concurrent.futures.process',
   '/usr/lib/python3.8/concurrent/futures/process.py',
   'PYMODULE'),
  ('multiprocessing.queues',
   '/usr/lib/python3.8/multiprocessing/queues.py',
   'PYMODULE'),
  ('multiprocessing.synchronize',
   '/usr/lib/python3.8/multiprocessing/synchronize.py',
   'PYMODULE'),
  ('multiprocessing.heap',
   '/usr/lib/python3.8/multiprocessing/heap.py',
   'PYMODULE'),
  ('concurrent.futures._base',
   '/usr/lib/python3.8/concurrent/futures/_base.py',
   'PYMODULE'),
  ('concurrent', '/usr/lib/python3.8/concurrent/__init__.py', 'PYMODULE'),
  ('asyncio.base_tasks',
   '/usr/lib/python3.8/asyncio/base_tasks.py',
   'PYMODULE'),
  ('asyncio.locks', '/usr/lib/python3.8/asyncio/locks.py', 'PYMODULE'),
  ('asyncio.sslproto', '/usr/lib/python3.8/asyncio/sslproto.py', 'PYMODULE'),
  ('asyncio.transports',
   '/usr/lib/python3.8/asyncio/transports.py',
   'PYMODULE'),
  ('asyncio.base_events',
   '/usr/lib/python3.8/asyncio/base_events.py',
   'PYMODULE'),
  ('asyncio.protocols', '/usr/lib/python3.8/asyncio/protocols.py', 'PYMODULE'),
  ('asyncio.futures', '/usr/lib/python3.8/asyncio/futures.py', 'PYMODULE'),
  ('asyncio.coroutines',
   '/usr/lib/python3.8/asyncio/coroutines.py',
   'PYMODULE'),
  ('asyncio.base_futures',
   '/usr/lib/python3.8/asyncio/base_futures.py',
   'PYMODULE'),
  ('asyncio.exceptions',
   '/usr/lib/python3.8/asyncio/exceptions.py',
   'PYMODULE'),
  ('asyncio.format_helpers',
   '/usr/lib/python3.8/asyncio/format_helpers.py',
   'PYMODULE'),
  ('asyncio.constants', '/usr/lib/python3.8/asyncio/constants.py', 'PYMODULE'),
  ('unittest.result', '/usr/lib/python3.8/unittest/result.py', 'PYMODULE'),
  ('unittest.util', '/usr/lib/python3.8/unittest/util.py', 'PYMODULE'),
  ('pdb', '/usr/lib/python3.8/pdb.py', 'PYMODULE'),
  ('pydoc', '/usr/lib/python3.8/pydoc.py', 'PYMODULE'),
  ('webbrowser', '/usr/lib/python3.8/webbrowser.py', 'PYMODULE'),
  ('http.server', '/usr/lib/python3.8/http/server.py', 'PYMODULE'),
  ('socketserver', '/usr/lib/python3.8/socketserver.py', 'PYMODULE'),
  ('html', '/usr/lib/python3.8/html/__init__.py', 'PYMODULE'),
  ('html.entities', '/usr/lib/python3.8/html/entities.py', 'PYMODULE'),
  ('pydoc_data.topics', '/usr/lib/python3.8/pydoc_data/topics.py', 'PYMODULE'),
  ('pydoc_data', '/usr/lib/python3.8/pydoc_data/__init__.py', 'PYMODULE'),
  ('tty', '/usr/lib/python3.8/tty.py', 'PYMODULE'),
  ('sysconfig', '/usr/lib/python3.8/sysconfig.py', 'PYMODULE'),
  ('_sysconfigdata__x86_64-linux-gnu',
   '/usr/lib/python3.8/_sysconfigdata__x86_64-linux-gnu.py',
   'PYMODULE'),
  ('_osx_support', '/usr/lib/python3.8/_osx_support.py', 'PYMODULE'),
  ('distutils.log', '/usr/lib/python3.8/distutils/log.py', 'PYMODULE'),
  ('distutils', '/usr/lib/python3.8/distutils/__init__.py', 'PYMODULE'),
  ('distutils.ccompiler',
   '/usr/lib/python3.8/distutils/ccompiler.py',
   'PYMODULE'),
  ('distutils.fancy_getopt',
   '/usr/lib/python3.8/distutils/fancy_getopt.py',
   'PYMODULE'),
  ('distutils.debug', '/usr/lib/python3.8/distutils/debug.py', 'PYMODULE'),
  ('distutils.util', '/usr/lib/python3.8/distutils/util.py', 'PYMODULE'),
  ('distutils.filelist',
   '/usr/lib/python3.8/distutils/filelist.py',
   'PYMODULE'),
  ('distutils.dep_util',
   '/usr/lib/python3.8/distutils/dep_util.py',
   'PYMODULE'),
  ('distutils.dir_util',
   '/usr/lib/python3.8/distutils/dir_util.py',
   'PYMODULE'),
  ('distutils.file_util',
   '/usr/lib/python3.8/distutils/file_util.py',
   'PYMODULE'),
  ('distutils.spawn', '/usr/lib/python3.8/distutils/spawn.py', 'PYMODULE'),
  ('distutils.errors', '/usr/lib/python3.8/distutils/errors.py', 'PYMODULE'),
  ('distutils.sysconfig',
   '/usr/lib/python3.8/distutils/sysconfig.py',
   'PYMODULE'),
  ('distutils.text_file',
   '/usr/lib/python3.8/distutils/text_file.py',
   'PYMODULE'),
  ('platform', '/usr/lib/python3.8/platform.py', 'PYMODULE'),
  ('plistlib', '/usr/lib/python3.8/plistlib.py', 'PYMODULE'),
  ('pkgutil', '/usr/lib/python3.8/pkgutil.py', 'PYMODULE'),
  ('zipimport', '/usr/lib/python3.8/zipimport.py', 'PYMODULE'),
  ('runpy', '/usr/lib/python3.8/runpy.py', 'PYMODULE'),
  ('glob', '/usr/lib/python3.8/glob.py', 'PYMODULE'),
  ('code', '/usr/lib/python3.8/code.py', 'PYMODULE'),
  ('codeop', '/usr/lib/python3.8/codeop.py', 'PYMODULE'),
  ('dis', '/usr/lib/python3.8/dis.py', 'PYMODULE'),
  ('opcode', '/usr/lib/python3.8/opcode.py', 'PYMODULE'),
  ('bdb', '/usr/lib/python3.8/bdb.py', 'PYMODULE'),
  ('cmd', '/usr/lib/python3.8/cmd.py', 'PYMODULE'),
  ('inspect', '/usr/lib/python3.8/inspect.py', 'PYMODULE'),
  ('ast', '/usr/lib/python3.8/ast.py', 'PYMODULE'),
  ('difflib', '/usr/lib/python3.8/difflib.py', 'PYMODULE'),
  ('__future__', '/usr/lib/python3.8/__future__.py', 'PYMODULE'),
  ('_compat_pickle', '/usr/lib/python3.8/_compat_pickle.py', 'PYMODULE'),
  ('multiprocessing.process',
   '/usr/lib/python3.8/multiprocessing/process.py',
   'PYMODULE'),
  ('multiprocessing.context',
   '/usr/lib/python3.8/multiprocessing/context.py',
   'PYMODULE'),
  ('multiprocessing.popen_forkserver',
   '/usr/lib/python3.8/multiprocessing/popen_forkserver.py',
   'PYMODULE'),
  ('multiprocessing.sharedctypes',
   '/usr/lib/python3.8/multiprocessing/sharedctypes.py',
   'PYMODULE'),
  ('ctypes', '/usr/lib/python3.8/ctypes/__init__.py', 'PYMODULE'),
  ('ctypes._endian', '/usr/lib/python3.8/ctypes/_endian.py', 'PYMODULE'),
  ('multiprocessing.pool',
   '/usr/lib/python3.8/multiprocessing/pool.py',
   'PYMODULE'),
  ('multiprocessing.dummy',
   '/usr/lib/python3.8/multiprocessing/dummy/__init__.py',
   'PYMODULE'),
  ('multiprocessing.dummy.connection',
   '/usr/lib/python3.8/multiprocessing/dummy/connection.py',
   'PYMODULE'),
  ('multiprocessing.managers',
   '/usr/lib/python3.8/multiprocessing/managers.py',
   'PYMODULE'),
  ('multiprocessing.shared_memory',
   '/usr/lib/python3.8/multiprocessing/shared_memory.py',
   'PYMODULE'),
  ('secrets', '/usr/lib/python3.8/secrets.py', 'PYMODULE'),
  ('multiprocessing.reduction',
   '/usr/lib/python3.8/multiprocessing/reduction.py',
   'PYMODULE'),
  ('multiprocessing.popen_fork',
   '/usr/lib/python3.8/multiprocessing/popen_fork.py',
   'PYMODULE'),
  ('multiprocessing.popen_spawn_win32',
   '/usr/lib/python3.8/multiprocessing/popen_spawn_win32.py',
   'PYMODULE'),
  ('subprocess', '/usr/lib/python3.8/subprocess.py', 'PYMODULE'),
  ('multiprocessing.spawn',
   '/usr/lib/python3.8/multiprocessing/spawn.py',
   'PYMODULE'),
  ('multiprocessing',
   '/usr/lib/python3.8/multiprocessing/__init__.py',
   'PYMODULE'),
  ('tracemalloc', '/usr/lib/python3.8/tracemalloc.py', 'PYMODULE'),
  ('_py_abc', '/usr/lib/python3.8/_py_abc.py', 'PYMODULE'),
  ('stringprep', '/usr/lib/python3.8/stringprep.py', 'PYMODULE'),
  ('cmake_converter.visual_studio.solution',
   '/mnt/c/Users/vincent.lambert/Documents/Travail/ConversionTools/cmake_converter-METRO/cmake_converter/visual_studio/solution.py',
   'PYMODULE'),
  ('cmake_converter.visual_studio', '-', 'PYMODULE'),
  ('cmake_converter',
   '/mnt/c/Users/vincent.lambert/Documents/Travail/ConversionTools/cmake_converter-METRO/cmake_converter/__init__.py',
   'PYMODULE'),
  ('cmake_converter.data_converter',
   '/mnt/c/Users/vincent.lambert/Documents/Travail/ConversionTools/cmake_converter-METRO/cmake_converter/data_converter.py',
   'PYMODULE'),
  ('cmake_converter.context',
   '/mnt/c/Users/vincent.lambert/Documents/Travail/ConversionTools/cmake_converter-METRO/cmake_converter/context.py',
   'PYMODULE'),
  ('cmake_converter.writer',
   '/mnt/c/Users/vincent.lambert/Documents/Travail/ConversionTools/cmake_converter-METRO/cmake_converter/writer.py',
   'PYMODULE'),
  ('cmake_converter.flags',
   '/mnt/c/Users/vincent.lambert/Documents/Travail/ConversionTools/cmake_converter-METRO/cmake_converter/flags.py',
   'PYMODULE'),
  ('cmake_converter.data_files',
   '/mnt/c/Users/vincent.lambert/Documents/Travail/ConversionTools/cmake_converter-METRO/cmake_converter/data_files.py',
   'PYMODULE'),
  ('lxml',
   '/home/lambevin/.local/lib/python3.8/site-packages/lxml/__init__.py',
   'PYMODULE'),
  ('lxml.html._html5builder',
   '/home/lambevin/.local/lib/python3.8/site-packages/lxml/html/_html5builder.py',
   'PYMODULE'),
  ('lxml.html.builder',
   '/home/lambevin/.local/lib/python3.8/site-packages/lxml/html/builder.py',
   'PYMODULE'),
  ('lxml.html.formfill',
   '/home/lambevin/.local/lib/python3.8/site-packages/lxml/html/formfill.py',
   'PYMODULE'),
  ('lxml.pyclasslookup',
   '/home/lambevin/.local/lib/python3.8/site-packages/lxml/pyclasslookup.py',
   'PYMODULE'),
  ('lxml.html._diffcommand',
   '/home/lambevin/.local/lib/python3.8/site-packages/lxml/html/_diffcommand.py',
   'PYMODULE'),
  ('lxml.html._setmixin',
   '/home/lambevin/.local/lib/python3.8/site-packages/lxml/html/_setmixin.py',
   'PYMODULE'),
  ('lxml.usedoctest',
   '/home/lambevin/.local/lib/python3.8/site-packages/lxml/usedoctest.py',
   'PYMODULE'),
  ('lxml.html.html5parser',
   '/home/lambevin/.local/lib/python3.8/site-packages/lxml/html/html5parser.py',
   'PYMODULE'),
  ('lxml.html.soupparser',
   '/home/lambevin/.local/lib/python3.8/site-packages/lxml/html/soupparser.py',
   'PYMODULE'),
  ('lxml.ElementInclude',
   '/home/lambevin/.local/lib/python3.8/site-packages/lxml/ElementInclude.py',
   'PYMODULE'),
  ('lxml.includes',
   '/home/lambevin/.local/lib/python3.8/site-packages/lxml/includes/__init__.py',
   'PYMODULE'),
  ('lxml.html.usedoctest',
   '/home/lambevin/.local/lib/python3.8/site-packages/lxml/html/usedoctest.py',
   'PYMODULE'),
  ('lxml.html',
   '/home/lambevin/.local/lib/python3.8/site-packages/lxml/html/__init__.py',
   'PYMODULE'),
  ('lxml.doctestcompare',
   '/home/lambevin/.local/lib/python3.8/site-packages/lxml/doctestcompare.py',
   'PYMODULE'),
  ('cgi', '/usr/lib/python3.8/cgi.py', 'PYMODULE'),
  ('lxml.isoschematron',
   '/home/lambevin/.local/lib/python3.8/site-packages/lxml/isoschematron/__init__.py',
   'PYMODULE'),
  ('lxml.html.ElementSoup',
   '/home/lambevin/.local/lib/python3.8/site-packages/lxml/html/ElementSoup.py',
   'PYMODULE'),
  ('lxml.html.defs',
   '/home/lambevin/.local/lib/python3.8/site-packages/lxml/html/defs.py',
   'PYMODULE'),
  ('lxml.cssselect',
   '/home/lambevin/.local/lib/python3.8/site-packages/lxml/cssselect.py',
   'PYMODULE'),
  ('cmake_converter.visual_studio.context',
   '/mnt/c/Users/vincent.lambert/Documents/Travail/ConversionTools/cmake_converter-METRO/cmake_converter/visual_studio/context.py',
   'PYMODULE'),
  ('cmake_converter.visual_studio.vfproj.parser',
   '/mnt/c/Users/vincent.lambert/Documents/Travail/ConversionTools/cmake_converter-METRO/cmake_converter/visual_studio/vfproj/parser.py',
   'PYMODULE'),
  ('cmake_converter.visual_studio.vfproj', '-', 'PYMODULE'),
  ('cmake_converter.parser',
   '/mnt/c/Users/vincent.lambert/Documents/Travail/ConversionTools/cmake_converter-METRO/cmake_converter/parser.py',
   'PYMODULE'),
  ('cmake_converter.visual_studio.vfproj.utils',
   '/mnt/c/Users/vincent.lambert/Documents/Travail/ConversionTools/cmake_converter-METRO/cmake_converter/visual_studio/vfproj/utils.py',
   'PYMODULE'),
  ('cmake_converter.visual_studio.vfproj.project_variables',
   '/mnt/c/Users/vincent.lambert/Documents/Travail/ConversionTools/cmake_converter-METRO/cmake_converter/visual_studio/vfproj/project_variables.py',
   'PYMODULE'),
  ('cmake_converter.project_variables',
   '/mnt/c/Users/vincent.lambert/Documents/Travail/ConversionTools/cmake_converter-METRO/cmake_converter/project_variables.py',
   'PYMODULE'),
  ('cmake_converter.visual_studio.vfproj.project_files',
   '/mnt/c/Users/vincent.lambert/Documents/Travail/ConversionTools/cmake_converter-METRO/cmake_converter/visual_studio/vfproj/project_files.py',
   'PYMODULE'),
  ('cmake_converter.project_files',
   '/mnt/c/Users/vincent.lambert/Documents/Travail/ConversionTools/cmake_converter-METRO/cmake_converter/project_files.py',
   'PYMODULE'),
  ('cmake_converter.visual_studio.vfproj.flags',
   '/mnt/c/Users/vincent.lambert/Documents/Travail/ConversionTools/cmake_converter-METRO/cmake_converter/visual_studio/vfproj/flags.py',
   'PYMODULE'),
  ('cmake_converter.visual_studio.vfproj.dependencies',
   '/mnt/c/Users/vincent.lambert/Documents/Travail/ConversionTools/cmake_converter-METRO/cmake_converter/visual_studio/vfproj/dependencies.py',
   'PYMODULE'),
  ('cmake_converter.dependencies',
   '/mnt/c/Users/vincent.lambert/Documents/Travail/ConversionTools/cmake_converter-METRO/cmake_converter/dependencies.py',
   'PYMODULE'),
  ('cmake_converter.visual_studio.vcxproj.parser',
   '/mnt/c/Users/vincent.lambert/Documents/Travail/ConversionTools/cmake_converter-METRO/cmake_converter/visual_studio/vcxproj/parser.py',
   'PYMODULE'),
  ('cmake_converter.visual_studio.vcxproj', '-', 'PYMODULE'),
  ('cmake_converter.visual_studio.vcxproj.utils',
   '/mnt/c/Users/vincent.lambert/Documents/Travail/ConversionTools/cmake_converter-METRO/cmake_converter/visual_studio/vcxproj/utils.py',
   'PYMODULE'),
  ('cmake_converter.visual_studio.vcxproj.project_variables',
   '/mnt/c/Users/vincent.lambert/Documents/Travail/ConversionTools/cmake_converter-METRO/cmake_converter/visual_studio/vcxproj/project_variables.py',
   'PYMODULE'),
  ('cmake_converter.visual_studio.vcxproj.project_files',
   '/mnt/c/Users/vincent.lambert/Documents/Travail/ConversionTools/cmake_converter-METRO/cmake_converter/visual_studio/vcxproj/project_files.py',
   'PYMODULE'),
  ('cmake_converter.visual_studio.vcxproj.flags',
   '/mnt/c/Users/vincent.lambert/Documents/Travail/ConversionTools/cmake_converter-METRO/cmake_converter/visual_studio/vcxproj/flags.py',
   'PYMODULE'),
  ('cmake_converter.visual_studio.vcxproj.dependencies',
   '/mnt/c/Users/vincent.lambert/Documents/Travail/ConversionTools/cmake_converter-METRO/cmake_converter/visual_studio/vcxproj/dependencies.py',
   'PYMODULE'),
  ('cmake_converter.utils',
   '/mnt/c/Users/vincent.lambert/Documents/Travail/ConversionTools/cmake_converter-METRO/cmake_converter/utils.py',
   'PYMODULE'),
  ('colorama',
   '/usr/lib/python3/dist-packages/colorama/__init__.py',
   'PYMODULE'),
  ('colorama.ansitowin32',
   '/usr/lib/python3/dist-packages/colorama/ansitowin32.py',
   'PYMODULE'),
  ('colorama.winterm',
   '/usr/lib/python3/dist-packages/colorama/winterm.py',
   'PYMODULE'),
  ('colorama.ansi',
   '/usr/lib/python3/dist-packages/colorama/ansi.py',
   'PYMODULE'),
  ('colorama.initialise',
   '/usr/lib/python3/dist-packages/colorama/initialise.py',
   'PYMODULE'),
  ('colorama.win32',
   '/usr/lib/python3/dist-packages/colorama/win32.py',
   'PYMODULE'),
  ('ctypes.wintypes', '/usr/lib/python3.8/ctypes/wintypes.py', 'PYMODULE'),
  ('os', '/usr/lib/python3.8/os.py', 'PYMODULE'),
  ('argparse', '/usr/lib/python3.8/argparse.py', 'PYMODULE')])
