('/mnt/c/Users/vincent.lambert/Documents/Travail/ConversionTools/cmake_converter-METRO/cmake_converter/build/main/main',
 False,
 False,
 True,
 None,
 None,
 False,
 False,
 None,
 True,
 'main.pkg',
 [('PYZ-00.pyz',
   '/mnt/c/Users/vincent.lambert/Documents/Travail/ConversionTools/cmake_converter-METRO/cmake_converter/build/main/PYZ-00.pyz',
   'PYZ'),
  ('struct',
   '/mnt/c/Users/vincent.lambert/Documents/Travail/ConversionTools/cmake_converter-METRO/cmake_converter/build/main/localpycos/struct.pyo',
   'PYMODULE'),
  ('pyimod01_os_path',
   '/home/lambevin/.local/lib/python3.8/site-packages/PyInstaller/loader/pyimod01_os_path.pyc',
   'PYMODULE'),
  ('pyimod02_archive',
   '/home/lambevin/.local/lib/python3.8/site-packages/PyInstaller/loader/pyimod02_archive.pyc',
   'PYMODULE'),
  ('pyimod03_importers',
   '/home/lambevin/.local/lib/python3.8/site-packages/PyInstaller/loader/pyimod03_importers.pyc',
   'PYMODULE'),
  ('pyiboot01_bootstrap',
   '/home/lambevin/.local/lib/python3.8/site-packages/PyInstaller/loader/pyiboot01_bootstrap.py',
   'PYSOURCE'),
  ('pyi_rth_multiprocessing',
   '/home/lambevin/.local/lib/python3.8/site-packages/PyInstaller/hooks/rthooks/pyi_rth_multiprocessing.py',
   'PYSOURCE'),
  ('main',
   '/mnt/c/Users/vincent.lambert/Documents/Travail/ConversionTools/cmake_converter-METRO/cmake_converter/main.py',
   'PYSOURCE')],
 [],
 False,
 False,
 1623740184,
 [('run',
   '/home/lambevin/.local/lib/python3.8/site-packages/PyInstaller/bootloader/Linux-64bit/run',
   'EXECUTABLE')])
